{
  "gems": [1,7,9,13,16],
  "height":17,
  "name":"Fallende Feuersteine",
  "time": [280,210,160,105,60],
  "width":17,



  "prerules":[
    { "situation":"any",
      "direction":"south",
      "original":[{"token":"swapling"},{"token":"sieve"},{"token":"path"},{"token":"me"}],
      "result":[{"token":"0"},{"token":"1"},{"token":"gem"},{"token":"3", "flags":{"bamrich":"true"}}]
    
    },
    { "situation":"any",
      "direction":"south",
      "probability":"0.5",
      "original":[{"token":"swapling"},{"token":"sieve"},{"token":"path"}],
      "result":[{"token":"0"},{"token":"1"},{"token":"gem"}]
    
    }
    ],
  "postrules":[
    { "situation":"any",
      "direction":"south",
      "original":[{"token":"gem"},{"token":"fire"}],
      "result":[{"token":"explosion"},{"token":"1"}]
    },
    { "situation":"any",
      "direction":"south",
      "original":[{"token":["me","me2","me3","me4"]},{"token":"fire"}],
      "result":[{"token":"explosion", "flags": {"gameover":"true"}},{"token":"1"}]
    }
    ],
  "map":[
    ["wall", "wall", "wall", "wall", "wall", "wall", "wall", "wall", "wall", "wall", "wall", "wall", "wall", "wall", "wall", "wall", "wall"],
    ["wall", "stone", "wall", "path", "path", "path", "path", "path", "path", {"token":"swapling", "flags":{"right":"true"}}, "path", "path", "path", "path", "wall", "stone", "wall"],
    ["wall", "stone", "wall", "wall", "wall", "wall", "wall", "wall", "sieve", "wall", "wall", "wall", "wall", "wall", "wall", "stone", "wall"],
    ["wall", "stone", "stone", "stone", "mud", "mud", "mud", "mud", "mud", "mud", "mud", "mud", "mud", "stone", "stone", "stone", "wall"],
    ["wall", "stone", "stone", "mud", "mud", "mud", "mud", "path", "path", "path", "mud", "mud", "mud", "mud", "stone", "stone", "wall"],
    ["wall", "stone", "mud", "mud", "mud", "path", "path", "path", "path", "path", "path", "path", "mud", "mud", "mud", "stone", "wall"],
    ["wall", "stone", "mud", "mud", "path", "path", "path", "path", "path", "path", "path", "path", "path", "mud", "mud", "stone", "wall"],
    ["wall", "stone", "mud", "mud", "path", "path", "path", "path", "path", "path", "path", "path", "path", "mud", "mud", "stone", "wall"],
    ["wall", "stone", "mud", "mud", "path", "path", "path", "path", "me", "path", "path", "path", "path", "mud", "mud", "stone", "wall"],
    ["wall", "stone", "mud", "mud", "path", "path", "path", "path", "path", "path", "path", "path", "path", "mud", "mud", "stone", "wall"],
    ["wall", "stone", "mud", "mud", "me4", "me3", "me2", "path", "path", "path", "path", "path", "path", "mud", "mud", "stone", "wall"],
    ["exit", "stone", "mud", "mud", "gem", "gem", "path", "path", "path", "path", "path", "gem", "gem", "mud", "mud", "stone", "exit"],
    ["wall", "stone", "mud", "mud", "gem", "gem", "gem", "path", "path", "path", "gem", "gem", "gem", "mud", "mud", "stone", "wall"],
    ["wall", "stone", "extratime", "mud", "gem", "gem", "gem", "gem", "gem", "gem", "gem", "gem", "gem", "mud", "mud", "stone", "wall"],
    ["wall", "stone", "mud", "mud", "gem", "gem", "gem", "gem", "gem", "gem", "gem", "gem", "gem", "mud", "mud", "stone", "wall"],
    ["wall", "bricks", "bricks", "bricks", "fire", "fire", "fire", "fire", "fire", "fire", "fire", "fire", "fire", "bricks", "bricks", "bricks", "wall"],
    ["wall", "wall", "wall", "wall", "wall", "wall", "wall", "wall", "wall", "wall", "wall", "wall", "wall", "wall", "wall", "wall", "wall"]
    ]
}
